{
  "data": [
    {
      "id": 1,
      "name": "Tobye Dealtry",
      "address": "321 Milwaukee Point",
      "office_hours_from": "17:06:54",
      "office_hours_to": "9:17:06",
      "phone": "790-843-3927",
      "web": "LTL",
      "photo": "https://robohash.org/laborumsitmagni.png?size=50x50&set=set1",
      "created_at": "2020-12-25T11:02:52Z",
      "updated_at": "2021-03-09T00:28:41Z",
      "deleted_at": ""
    },
    {
      "id": 2,
      "name": "Audy Gadeaux",
      "address": "5052 Coolidge Crossing",
      "office_hours_from": "15:44:18",
      "office_hours_to": "4:54:38",
      "phone": "480-850-7774",
      "web": "QCAT",
      "photo": "https://robohash.org/rerumaliquidreiciendis.png?size=50x50&set=set1",
      "created_at": "2021-01-27T02:25:45Z",
      "updated_at": "2020-11-17T03:52:13Z",
      "deleted_at": ""
    },
    {
      "id": 3,
      "name": "Sonny Scudder",
      "address": "66 Crescent Oaks Alley",
      "office_hours_from": "12:06:46",
      "office_hours_to": "18:39:29",
      "phone": "995-120-9052",
      "web": "Corporate Events",
      "photo": "https://robohash.org/quamabnobis.png?size=50x50&set=set1",
      "created_at": "2021-01-18T15:58:56Z",
      "updated_at": "2021-04-16T20:13:31Z",
      "deleted_at": ""
    },
    {
      "id": 4,
      "name": "Katherine Cristoferi",
      "address": "263 Main Terrace",
      "office_hours_from": "11:45:18",
      "office_hours_to": "14:33:26",
      "phone": "322-845-7746",
      "web": "Business Planning",
      "photo": "https://robohash.org/facererepudiandaevel.png?size=50x50&set=set1",
      "created_at": "2021-06-26T14:13:36Z",
      "updated_at": "2020-11-05T23:45:20Z",
      "deleted_at": ""
    },
    {
      "id": 5,
      "name": "Davida Haukey",
      "address": "3 Pawling Drive",
      "office_hours_from": "14:26:51",
      "office_hours_to": "4:32:17",
      "phone": "263-813-2382",
      "web": "RHCE",
      "photo": "https://robohash.org/pariaturfacilisofficiis.png?size=50x50&set=set1",
      "created_at": "2021-04-29T19:58:43Z",
      "updated_at": "2021-04-28T14:58:19Z",
      "deleted_at": ""
    },
    {
      "id": 6,
      "name": "Jesus Rustman",
      "address": "8036 Ridgeview Terrace",
      "office_hours_from": "20:48:46",
      "office_hours_to": "0:51:58",
      "phone": "676-826-4027",
      "web": "Pediatrics",
      "photo": "https://robohash.org/modivoluptasexcepturi.png?size=50x50&set=set1",
      "created_at": "2021-01-16T22:18:24Z",
      "updated_at": "2020-09-20T09:59:46Z",
      "deleted_at": ""
    },
    {
      "id": 7,
      "name": "Onofredo Eggleston",
      "address": "3004 Huxley Center",
      "office_hours_from": "9:15:45",
      "office_hours_to": "10:11:46",
      "phone": "916-342-2719",
      "web": "SSL Certificates",
      "photo": "https://robohash.org/etarchitectonecessitatibus.png?size=50x50&set=set1",
      "created_at": "2020-12-04T14:36:16Z",
      "updated_at": "2021-05-03T10:04:35Z",
      "deleted_at": ""
    },
    {
      "id": 8,
      "name": "Archibaldo Bunn",
      "address": "21230 Anzinger Crossing",
      "office_hours_from": "23:22:34",
      "office_hours_to": "4:20:27",
      "phone": "405-496-5793",
      "web": "Hygiene",
      "photo": "https://robohash.org/voluptatemestquam.png?size=50x50&set=set1",
      "created_at": "2021-04-16T03:51:06Z",
      "updated_at": "2020-10-07T16:16:43Z",
      "deleted_at": ""
    },
    {
      "id": 9,
      "name": "Neill Bollins",
      "address": "6140 Hallows Parkway",
      "office_hours_from": "0:45:33",
      "office_hours_to": "23:02:20",
      "phone": "477-938-5895",
      "web": "Design Patterns",
      "photo": "https://robohash.org/amagnamnumquam.png?size=50x50&set=set1",
      "created_at": "2020-11-04T18:36:03Z",
      "updated_at": "2021-03-20T04:22:45Z",
      "deleted_at": ""
    },
    {
      "id": 10,
      "name": "Kaila Lampbrecht",
      "address": "5 Hermina Junction",
      "office_hours_from": "6:43:30",
      "office_hours_to": "11:10:46",
      "phone": "480-963-2992",
      "web": "VLDB",
      "photo": "https://robohash.org/idinerror.png?size=50x50&set=set1",
      "created_at": "2021-06-11T06:06:11Z",
      "updated_at": "2021-07-11T13:22:32Z",
      "deleted_at": ""
    },
    {
      "id": 11,
      "name": "Candie Juschka",
      "address": "3 Debs Terrace",
      "office_hours_from": "13:07:23",
      "office_hours_to": "10:41:24",
      "phone": "268-920-8149",
      "web": "KML",
      "photo": "https://robohash.org/similiquelaboresoluta.png?size=50x50&set=set1",
      "created_at": "2021-04-07T12:50:30Z",
      "updated_at": "2021-06-19T07:52:13Z",
      "deleted_at": ""
    },
    {
      "id": 12,
      "name": "Shelli Sabey",
      "address": "72463 Carpenter Drive",
      "office_hours_from": "8:52:25",
      "office_hours_to": "8:36:21",
      "phone": "782-492-0204",
      "web": "Program Management",
      "photo": "https://robohash.org/laboriosamvoluptasvoluptate.png?size=50x50&set=set1",
      "created_at": "2021-06-07T08:46:41Z",
      "updated_at": "2021-03-07T11:18:21Z",
      "deleted_at": ""
    },
    {
      "id": 13,
      "name": "Stella Scaplehorn",
      "address": "78 Eastlawn Street",
      "office_hours_from": "3:23:08",
      "office_hours_to": "7:30:12",
      "phone": "815-476-0456",
      "web": "MSP Practitioner",
      "photo": "https://robohash.org/nametquod.png?size=50x50&set=set1",
      "created_at": "2021-03-18T01:11:44Z",
      "updated_at": "2021-06-29T09:06:48Z",
      "deleted_at": ""
    },
    {
      "id": 14,
      "name": "Kevan Wines",
      "address": "25773 Arkansas Hill",
      "office_hours_from": "10:14:52",
      "office_hours_to": "23:38:08",
      "phone": "304-861-1637",
      "web": "Mergers &amp; Acquisitions",
      "photo": "https://robohash.org/praesentiuminciduntalias.png?size=50x50&set=set1",
      "created_at": "2021-04-22T01:28:47Z",
      "updated_at": "2021-08-05T14:03:35Z",
      "deleted_at": ""
    },
    {
      "id": 15,
      "name": "Rosmunda Coxall",
      "address": "34 West Drive",
      "office_hours_from": "20:23:20",
      "office_hours_to": "1:33:49",
      "phone": "685-895-9004",
      "web": "LMS Test.Lab",
      "photo": "https://robohash.org/delenitifacilisearum.png?size=50x50&set=set1",
      "created_at": "2020-12-07T07:59:01Z",
      "updated_at": "2020-10-25T17:29:02Z",
      "deleted_at": ""
    },
    {
      "id": 16,
      "name": "Vite Willock",
      "address": "10 Pearson Circle",
      "office_hours_from": "15:28:34",
      "office_hours_to": "2:18:10",
      "phone": "428-749-4461",
      "web": "Workplace Safety",
      "photo": "https://robohash.org/doloresrepudiandaecorrupti.png?size=50x50&set=set1",
      "created_at": "2021-02-10T03:26:33Z",
      "updated_at": "2020-09-27T23:48:06Z",
      "deleted_at": ""
    },
    {
      "id": 17,
      "name": "Pascale Tassell",
      "address": "2 Springview Alley",
      "office_hours_from": "1:03:47",
      "office_hours_to": "14:55:59",
      "phone": "265-973-8656",
      "web": "Ultrasonic Welding",
      "photo": "https://robohash.org/idiustorerum.png?size=50x50&set=set1",
      "created_at": "2021-08-14T04:50:15Z",
      "updated_at": "2021-01-26T11:04:34Z",
      "deleted_at": ""
    },
    {
      "id": 18,
      "name": "Niall McArd",
      "address": "4 Stang Way",
      "office_hours_from": "13:15:48",
      "office_hours_to": "7:22:27",
      "phone": "428-779-3952",
      "web": "DXX",
      "photo": "https://robohash.org/dictaetpossimus.png?size=50x50&set=set1",
      "created_at": "2021-09-11T04:44:14Z",
      "updated_at": "2021-05-07T23:00:54Z",
      "deleted_at": ""
    },
    {
      "id": 19,
      "name": "Putnam Shortland",
      "address": "4 1st Park",
      "office_hours_from": "8:51:06",
      "office_hours_to": "21:17:37",
      "phone": "966-407-9689",
      "web": "EEG",
      "photo": "https://robohash.org/autofficiaquia.png?size=50x50&set=set1",
      "created_at": "2021-06-18T20:21:34Z",
      "updated_at": "2021-05-14T06:50:54Z",
      "deleted_at": ""
    },
    {
      "id": 20,
      "name": "Myra Baudino",
      "address": "09549 Katie Junction",
      "office_hours_from": "6:25:27",
      "office_hours_to": "2:13:31",
      "phone": "115-531-6836",
      "web": "Digital Signage",
      "photo": "https://robohash.org/harumducimustempora.png?size=50x50&set=set1",
      "created_at": "2021-01-20T20:20:16Z",
      "updated_at": "2021-06-30T08:59:50Z",
      "deleted_at": ""
    }
  ],
  "pagination": {
    "page": 1,
    "per_page": 20,
    "total": 50,
    "total_pages": 3
  }
}
